{
  "images" : [
    {
      "idiom" : "iphone",
      "scale" : "1x",
      "filename" : "avanslogo.png"
    },
    {
      "idiom" : "iphone",
      "scale" : "2x",
      "filename" : "avanslogo@2x.png"
    },
    {
      "idiom" : "iphone",
      "filename" : "avanslogo@2x R4.png",
      "subtype" : "retina4",
      "scale" : "2x"
    }
  ],
  "info" : {
    "version" : 1,
    "author" : "xcode"
  }
}